<?xml version="1.0" encoding="UTF-8" standalone="no"?>
<!-- Created with Inkscape (http://www.inkscape.org/) -->

<svg
   xmlns:dc="http://purl.org/dc/elements/1.1/"
   xmlns:cc="http://creativecommons.org/ns#"
   xmlns:rdf="http://www.w3.org/1999/02/22-rdf-syntax-ns#"
   xmlns:svg="http://www.w3.org/2000/svg"
   xmlns="http://www.w3.org/2000/svg"
   xmlns:sodipodi="http://sodipodi.sourceforge.net/DTD/sodipodi-0.dtd"
   xmlns:inkscape="http://www.inkscape.org/namespaces/inkscape"
   width="100mm"
   height="100mm"
   viewBox="0 0 210 297"
   version="1.1"
   id="svg8"
   sodipodi:docname="Termine.svg"
   inkscape:version="0.92.5 (2060ec1f9f, 2020-04-08)">
  <defs
     id="defs2">
    <inkscape:path-effect
       effect="powerstroke"
       id="path-effect4950"
       is_visible="true"
       offset_points="0,0.39290625"
       sort_points="true"
       interpolator_type="CubicBezierJohan"
       interpolator_beta="0.2"
       start_linecap_type="zerowidth"
       linejoin_type="extrp_arc"
       miter_limit="4"
       end_linecap_type="zerowidth" />
  </defs>
  <sodipodi:namedview
     id="base"
     pagecolor="#ffffff"
     bordercolor="#666666"
     borderopacity="1.0"
     inkscape:pageopacity="0.0"
     inkscape:pageshadow="2"
     inkscape:zoom="0.25"
     inkscape:cx="-576.09448"
     inkscape:cy="115.36506"
     inkscape:document-units="mm"
     inkscape:current-layer="layer1"
     showgrid="false"
     inkscape:window-width="1366"
     inkscape:window-height="715"
     inkscape:window-x="-8"
     inkscape:window-y="-8"
     inkscape:window-maximized="1" />
  <metadata
     id="metadata5">
    <rdf:RDF>
      <cc:Work
         rdf:about="">
        <dc:format>image/svg+xml</dc:format>
        <dc:type
           rdf:resource="http://purl.org/dc/dcmitype/StillImage" />
        <dc:title></dc:title>
      </cc:Work>
    </rdf:RDF>
  </metadata>
  <g
     inkscape:label="Ebene 1"
     inkscape:groupmode="layer"
     id="layer1">
    <g
       id="g4850-7-3-4-2"
       transform="matrix(2.1568998,0,0,2.1568998,-640.26225,-169.79484)"
       style="fill:#000000;fill-opacity:1">
      <path
         sodipodi:nodetypes="cscc"
         inkscape:connector-curvature="0"
         id="path4844-5-5-1-7"
         d="m 235.68,193.05 c 0,0 0.39459,-74.25 -35.64,-74.25 -36.42783,0 -37.80398,74.92179 -37.80398,74.92179 z"
         style="fill:#000000;fill-opacity:1;stroke:#000000;stroke-width:9.37511349;stroke-linecap:butt;stroke-linejoin:round;stroke-miterlimit:4;stroke-dasharray:none;stroke-opacity:1" />
      <circle
         r="23.76"
         cy="113.76921"
         cx="200.00786"
         id="path4846-5-6-5-2"
         style="opacity:0.98000004;fill:#000000;fill-opacity:1;fill-rule:nonzero;stroke:#000000;stroke-width:15.58963585;stroke-linecap:round;stroke-linejoin:round;stroke-miterlimit:4;stroke-dasharray:none;stroke-opacity:1;paint-order:stroke markers fill" />
    </g>
    <g
       id="g4962"
       transform="translate(-356.75887,251.46)">
      <rect
         y="92.058479"
         x="-16.999783"
         height="132.88889"
         width="244.08162"
         id="rect4946"
         style="opacity:1;fill:#fffff9;fill-opacity:1;fill-rule:nonzero;stroke:#000000;stroke-width:21.65723991;stroke-linecap:round;stroke-linejoin:round;stroke-miterlimit:10;stroke-dasharray:none;stroke-opacity:1;paint-order:stroke markers fill" />
      <path
         sodipodi:nodetypes="ccc"
         inkscape:connector-curvature="0"
         id="path4952"
         d="M -16.999784,92.058036 105.04103,162.90311 227.08183,92.058036"
         style="fill:none;stroke:#000000;stroke-width:12.92840958;stroke-linecap:butt;stroke-linejoin:round;stroke-miterlimit:4;stroke-dasharray:none;stroke-opacity:1" />
    </g>
    <path
       style="opacity:1;fill:#fffff9;fill-opacity:1;fill-rule:nonzero;stroke:#000000;stroke-width:49.97567749;stroke-linecap:butt;stroke-linejoin:miter;stroke-miterlimit:0;stroke-dasharray:none;stroke-opacity:1;paint-order:stroke markers fill"
       id="path4964"
       sodipodi:type="arc"
       sodipodi:cx="-509.95776"
       sodipodi:cy="-35.378353"
       sodipodi:rx="98.310966"
       sodipodi:ry="98.310966"
       sodipodi:start="3.1415927"
       sodipodi:end="1.5707963"
       d="m -608.26873,-35.378358 a 98.310966,98.310966 0 0 1 98.31097,-98.310962 98.310966,98.310966 0 0 1 98.31096,98.310967 98.310966,98.310966 0 0 1 -98.31096,98.310966"
       sodipodi:open="true" />
    <circle
       style="opacity:1;fill:#000000;fill-opacity:1;fill-rule:nonzero;stroke:#000000;stroke-width:19.89900017;stroke-linecap:butt;stroke-linejoin:miter;stroke-miterlimit:0;stroke-dasharray:none;stroke-opacity:1;paint-order:stroke markers fill"
       id="path4966"
       cx="-510.66391"
       cy="-35.97691"
       r="20.789999" />
    <rect
       style="opacity:1;fill:#ffffff;fill-opacity:1;fill-rule:nonzero;stroke:#000000;stroke-width:40.96223968;stroke-linecap:butt;stroke-linejoin:round;stroke-miterlimit:0;stroke-dasharray:none;stroke-opacity:1;paint-order:stroke markers fill"
       id="rect4968"
       width="204.48044"
       height="180.03168"
       x="2.9686196"
       y="70.499702" />
    <ellipse
       style="opacity:1;fill:#000000;fill-opacity:1;fill-rule:nonzero;stroke:#000000;stroke-width:10.63735199;stroke-linecap:butt;stroke-linejoin:round;stroke-miterlimit:0;stroke-dasharray:none;stroke-opacity:1;paint-order:stroke markers fill"
       id="path4970"
       cx="162.66924"
       cy="60.214176"
       rx="5.9400001"
       ry="28.616148" />
    <ellipse
       style="opacity:1;fill:#000000;fill-opacity:1;fill-rule:nonzero;stroke:#000000;stroke-width:10.63735199;stroke-linecap:butt;stroke-linejoin:round;stroke-miterlimit:0;stroke-dasharray:none;stroke-opacity:1;paint-order:stroke markers fill"
       id="path4970-6"
       cx="47.420879"
       cy="60.214176"
       rx="5.9400001"
       ry="28.616148" />
  </g>
</svg>
